INDEX VERSION 1.126+C:\workspace\trainingproject_ws\.metadata\.plugins\org.eclipse.jdt.core
4286991126.index
3539919717.index
1815551542.index
3748153667.index
1637011805.index
295699743.index
495569694.index
2883748498.index
2715566800.index
3730805591.index
1723546600.index
737247092.index
1057979078.index
711998259.index
4063981291.index
4094326791.index
327650144.index
3654913565.index
4228412822.index
1483037699.index
2771135182.index
